…
2nd line -&gt; 10.41173

For what proportion of motor vehicle thefts in 2007 was an arrest made?

``` r
mvt_prop
```

    ## Source: local data frame [24 x 4]
    ## Groups: Year [12]
    ## 
    ##     Year Arrest     N      prop
    ##    <int>  <lgl> <int>     <dbl>
    ## 1   2001  FALSE 18517 89.588272
    ## 2   2001   TRUE  2152 10.411728
    ## 3   2002  FALSE 16638 88.721805
    ## 4   2002   TRUE  2115 11.278195
    ## 5   2003  FALSE 14859 89.205739
    ## 6   2003   TRUE  1798 10.794261
    ## 7   2004  FALSE 15169 89.959673
    ## 8   2004   TRUE  1693 10.040327
    ## 9   2005  FALSE 14956 90.730405
    ## 10  2005   TRUE  1528  9.269595
    ## # ... with 14 more rows
…
